[
  {
    "title": "Aretes juliana",
    "author": "juliana",
    "category": "Bisuteria",
    "hero": "j.jpg",
    "price": "10000"
  },
  {
    "title": "Aretes angela azul",
    "author": "Angela",
    "category": "Bisuteria",
    "hero": "aretes-angela.jpg",
    "price": "10000"
  },
  {
    "title": "Arete carmen negro",
    "author": "carmen",
    "category": "Bisuteria",
    "hero": "carmen_negro.jpg",
    "price": "10000"
  },
  {
    "title": "Collar de nacar",
    "author": "carmen",
    "category": "Bisuteria",
    "hero": "collar_nacar.jpg",
    "price": "10000"
  },
  {
    "title": "pulsera de perlas",
    "author": "carmen",
    "category": "Bisuteria",
    "hero": "pulsera.jpg",
    "price": "10000"
  },
  {
    "title": "Concha de mar",
    "author": "",
    "category": "Insumos",
    "hero": "concha_de_mar.jpg",
    "price": "10000"
  },
  {
    "title": "Cuarzo_rutilado",
    "author": "",
    "category": "Insumos",
    "hero": "cuarzo_rutilado.jpg",
    "price": "10000"
  },
  {
    "title": "Fossil rojo",
    "author": "",
    "category": "Insumos",
    "hero": "fossil_rojo.jpg",
    "price": "10000"
  },
  {
    "title": "agata lagrima",
    "author": "",
    "category": "Insumos",
    "hero": "agata_lagrima.jpg",
    "price": "10000"
  },
  {
    "title": "borla azul",
    "author": "",
    "category": "Insumos",
    "hero": "borla_azul.jpg",
    "price": "10000"
  }
]
